{
  "project_info": {
    "project_number": "453618230830",
    "firebase_url": "https://fir-learning-e02ff.firebaseio.com",
    "project_id": "fir-learning-e02ff",
    "storage_bucket": "fir-learning-e02ff.appspot.com"
  },
  "client": [
    {
      "client_info": {
        "mobilesdk_app_id": "1:453618230830:android:969455e0f3be1425",
        "android_client_info": {
          "package_name": "com.atttttaboy.firebaselearning"
        }
      },
      "oauth_client": [
        {
          "client_id": "453618230830-krkophsmjgcqgur1trkh2ik7gth4fvqf.apps.googleusercontent.com",
          "client_type": 1,
          "android_info": {
            "package_name": "com.atttttaboy.firebaselearning",
            "certificate_hash": "e131fcb74d521dad4615462f7b65e7e7044d5c67"
          }
        },
        {
          "client_id": "453618230830-lkrh1l63b8be35sf7tl20tut7v8ir87u.apps.googleusercontent.com",
          "client_type": 3
        }
      ],
      "api_key": [
        {
          "current_key": "AIzaSyCbk5vd0yvqH_GrVxX6d_6cFfxPFA1-nCU"
        }
      ],
      "services": {
        "analytics_service": {
          "status": 1
        },
        "appinvite_service": {
          "status": 2,
          "other_platform_oauth_client": [
            {
              "client_id": "453618230830-lkrh1l63b8be35sf7tl20tut7v8ir87u.apps.googleusercontent.com",
              "client_type": 3
            }
          ]
        },
        "ads_service": {
          "status": 2
        }
      }
    }
  ],
  "configuration_version": "1"
}